All Models
…
set.seed(494)
serie_a_split <- initial_split(serie_a_modeling_outfield, prop = .75, strata = "revision")
serie_a_training <- training(serie_a_split)
serie_a_testing <- testing(serie_a_split)

serie_a_ranger_recipe <- recipe(revision ~., data = serie_a_training) %>% 
  step_rm(Player, Nation, Squad, Born, G_per90, A_per90, minutes_played_divided_by90, Attendance) %>% 
  step_upsample(revision, over_ratio = .4) %>% 
  step_mutate_at(all_numeric(), fn = ~as.numeric(.))

serie_a_ranger_recipe %>% 
  prep(serie_a_training) %>% 
  juice()

## # A tibble: 502 x 24
##    position   Int  TklW    OG PKcon   Age    MP   Min   Gls   Ast Non_PK_G    PK
##    <fct>    <dbl> <dbl> <dbl> <dbl> <dbl> <dbl> <dbl> <dbl> <dbl>    <dbl> <dbl>
##  1 CM          30    31     0     0    21    28  2044     5     3        5     0
##  2 CM          12    40     0     0    24    24  1900     3     0        3     0
##  3 CM          46    54     0     0    27    35  2894     0     0        0     0
##  4 CB          54    36     1     1    32    36  3203     2     1        2     0
##  5 CDM         20    33     0     0    26    30  2015     3     1        3     0
##  6 CB          11     7     0     1    35    23  1815     0     0        0     0
##  7 CM          20    31     0     0    22    34  2713     7     3        7     0
##  8 CF          13    14     0     0    28    29  1870     5     4        4     1
##  9 CM          44    56     0     0    26    33  2895     1     0        1     0
## 10 CB          44    39     0     1    27    30  2470     0     2        0     0
## # ... with 492 more rows, and 12 more variables: PKatt <dbl>, CrdY <dbl>,
## #   CrdR <dbl>, G_plus_A_per90 <dbl>, G_minus_Pk_per90 <dbl>,
## #   G_plus_A_minus_PK_per90 <dbl>, Rk <dbl>, GF <dbl>, GA <dbl>, GD <dbl>,
## #   Pts <dbl>, revision <fct>
…
set.seed(494)
prem_split <- initial_split(prem_modeling_outfield, prop = .75, strata = "revision")
prem_training <- training(prem_split)
prem_testing <- testing(prem_split)

prem_ranger_recipe <- recipe(revision ~., data = prem_training) %>% 
  step_rm(Player, Nation, Squad, G_per90, A_per90, minutes_played_divided_by90, Attendance, Born) %>% 
  step_upsample(revision, over_ratio = .33) %>% 
  step_mutate_at(all_numeric(), fn = ~as.numeric(.))

prem_ranger_recipe %>% 
  prep(prem_training) %>% 
  juice()

## # A tibble: 500 x 24
##    position   Int  TklW    OG PKcon   Age    MP   Min   Gls   Ast Non_PK_G    PK
##    <fct>    <dbl> <dbl> <dbl> <dbl> <dbl> <dbl> <dbl> <dbl> <dbl>    <dbl> <dbl>
##  1 CB          30    23     0     0    25    25  1997     1     0        1     0
##  2 LW           6     4     0     0    26    34  2422    12     4       10     2
##  3 RM          44    64     0     0    25    36  2519     3     4        3     0
##  4 LM          15    22     0     0    26    33  2137     3     0        2     1
##  5 LB          34    36     0     0    21    36  3240     0     4        0     0
##  6 LB          18    25     0     0    23    29  2591     1     4        1     0
##  7 RB          23    17     0     0    26    23  1713     1     1        1     0
##  8 CB          34    24     0     0    20    23  1902     0     2        0     0
##  9 ST           5     8     0     0    26    37  2064    10     3        8     2
## 10 CB          52    33     0     1    31    27  2282     1     2        1     0
## # ... with 490 more rows, and 12 more variables: PKatt <dbl>, CrdY <dbl>,
## #   CrdR <dbl>, G_plus_A_per90 <dbl>, G_minus_Pk_per90 <dbl>,
## #   G_plus_A_minus_PK_per90 <dbl>, Rk <dbl>, GF <dbl>, GA <dbl>, GD <dbl>,
## #   Pts <dbl>, revision <fct>
…
set.seed(494)
la_liga_split <- initial_split(la_liga_modeling_outfield, prop = .75, strata = "revision")
la_liga_training <- training(la_liga_split)
la_liga_testing <- testing(la_liga_split)

la_liga_ranger_recipe <- recipe(revision ~., data = la_liga_training) %>% 
  step_rm(Player, Nation, Squad, Born, G_per90, A_per90, minutes_played_divided_by90, OG, Attendance) %>% 
  step_upsample(revision, over_ratio = .5) %>% 
  step_mutate_at(all_numeric(), fn = ~as.numeric(.))

la_liga_ranger_recipe %>% 
  prep(la_liga_training) %>% 
  juice()

## # A tibble: 534 x 23
##    position   Int  TklW PKcon   Age    MP   Min   Gls   Ast Non_PK_G    PK PKatt
##    <fct>    <dbl> <dbl> <dbl> <dbl> <dbl> <dbl> <dbl> <dbl>    <dbl> <dbl> <dbl>
##  1 CM          12    23     0    22    31  2480     3     2        3     0     0
##  2 CB          35    32     2    26    25  2023     0     1        0     0     0
##  3 CAM         53    66     0    19    30  2341     2     2        2     0     0
##  4 LM          53    52     1    21    29  2176     1     6        1     0     0
##  5 CM          55    40     0    27    36  3163     7     5        7     0     0
##  6 CB          43    38     0    32    25  1928     1     3        0     1     1
##  7 ST           7    12     0    26    33  2074    13     2       13     0     0
##  8 CDM         16    32     0    26    30  2385     0     5        0     0     0
##  9 LB          29    29     0    26    27  1737     0     2        0     0     1
## 10 CB          31    41     2    27    37  3330     1     0        1     0     0
## # ... with 524 more rows, and 11 more variables: CrdY <dbl>, CrdR <dbl>,
## #   G_plus_A_per90 <dbl>, G_minus_Pk_per90 <dbl>,
## #   G_plus_A_minus_PK_per90 <dbl>, Rk <dbl>, GF <dbl>, GA <dbl>, GD <dbl>,
## #   Pts <dbl>, revision <fct>
…
set.seed(494)
bundesliga_split <- initial_split(bundesliga_modeling_outfield, prop = .75, strata = "revision")
bundesliga_training <- training(bundesliga_split)
bundesliga_testing <- testing(bundesliga_split)

bundesliga_ranger_recipe <- recipe(revision ~., data = bundesliga_training) %>% 
  step_rm(Player, Nation, Squad, G_per90, A_per90, minutes_played_divided_by90, Attendance, Born) %>% 
  step_upsample(revision, over_ratio = .55) %>% 
  step_mutate_at(all_numeric(), fn = ~as.numeric(.))

bundesliga_ranger_recipe %>% 
  prep(bundesliga_training) %>% 
  juice()

## # A tibble: 434 x 24
##    position   Int  TklW    OG PKcon   Age    MP   Min   Gls   Ast Non_PK_G    PK
##    <fct>    <dbl> <dbl> <dbl> <dbl> <dbl> <dbl> <dbl> <dbl> <dbl>    <dbl> <dbl>
##  1 CM          37    51     0     1    28    27  2302     1     3        1     0
##  2 LM          29    10     0     0    30    26  1982     7     4        6     1
##  3 ST          11    20     0     0    23    28  1735     5     1        5     0
##  4 CB          34    41     0     0    28    27  2315     3     2        3     0
##  5 CB          74    39     0     0    19    25  2106     0     0        0     0
##  6 CB          10    30     0     0    24    26  2126     3     0        3     0
##  7 LM          27    17     0     0    26    25  1729     1     3        1     0
##  8 CB          16    21     0     1    21    28  2427     0     2        0     0
##  9 CB          35    23     0     1    32    30  2637     0     0        0     0
## 10 CB          21    12     0     1    22    24  1901     1     0        1     0
## # ... with 424 more rows, and 12 more variables: PKatt <dbl>, CrdY <dbl>,
## #   CrdR <dbl>, G_plus_A_per90 <dbl>, G_minus_Pk_per90 <dbl>,
## #   G_plus_A_minus_PK_per90 <dbl>, Rk <dbl>, GF <dbl>, GA <dbl>, GD <dbl>,
## #   Pts <dbl>, revision <fct>
…
set.seed(494)
ligue1_split <- initial_split(ligue1_modeling_outfield, prop = .75, strata = "revision")
ligue1_training <- training(ligue1_split)
ligue1_testing <- testing(ligue1_split)

ligue1_ranger_recipe <- recipe(revision ~., data = ligue1_training) %>% 
  step_rm(Player, Nation, Squad, Born, minutes_played_divided_by90, G_per90, A_per90, Attendance) %>% 
  step_upsample(revision, over_ratio = .4) %>% 
  step_mutate_at(all_numeric(), fn = ~as.numeric(.))

ligue1_ranger_recipe %>% 
  prep(ligue1_training) %>% 
  juice()

## # A tibble: 502 x 24
##    position   Int  TklW    OG PKcon   Age    MP   Min   Gls   Ast Non_PK_G    PK
##    <fct>    <dbl> <dbl> <dbl> <dbl> <dbl> <dbl> <dbl> <dbl> <dbl>    <dbl> <dbl>
##  1 RB          39    45     0     0    26    27  2149     0     3        0     0
##  2 LM          11    26     0     0    23    38  2476     3     5        3     0
##  3 RB          51    31     0     0    22    27  2324     0     1        0     0
##  4 ST          14    16     0     0    26    36  2225    10     4       10     0
##  5 CB          41    36     0     0    32    32  2635     1     0        1     0
##  6 RB          72    74     0     3    29    27  2395     0     1        0     0
##  7 RB          67    31     0     1    26    26  2198     1     1        1     0
##  8 CB          27    26     0     1    25    34  3015     1     0        1     0
##  9 RB          74    63     0     0    23    30  2646     0     4        0     0
## 10 LB          24    23     0     3    22    27  2121     0     4        0     0
## # ... with 492 more rows, and 12 more variables: PKatt <dbl>, CrdY <dbl>,
## #   CrdR <dbl>, G_plus_A_per90 <dbl>, G_minus_Pk_per90 <dbl>,
## #   G_plus_A_minus_PK_per90 <dbl>, Rk <dbl>, GF <dbl>, GA <dbl>, GD <dbl>,
## #   Pts <dbl>, revision <fct>
…
