Behind The Scenes
…
We then made the recipe for the model. We decided to use a random forest model because it made the most sense for predicting a binary response variable. We had also tried using a lasso model, but they were consistently worse for each league. We removed some redundant variables and some variables that are a little too specific to the certain player. We then decided to upsample the data to include more team of the seasons in the training data. This is where the different leagues really differ. We did some guess and check for each league in order to find the best upsampling that made the best model.

prem_ranger_recipe <- recipe(revision ~., data = prem_training) %>% 
  step_rm(Player, Nation, Squad, G_per90, A_per90, minutes_played_divided_by90, Attendance, Born) %>% 
  step_upsample(revision, over_ratio = .33) %>% 
  step_mutate_at(all_numeric(), fn = ~as.numeric(.))

prem_ranger_recipe %>% 
  prep(prem_training) %>% 
  juice()

## # A tibble: 500 x 24
##    position   Int  TklW    OG PKcon   Age    MP   Min   Gls   Ast Non_PK_G    PK
##    <fct>    <dbl> <dbl> <dbl> <dbl> <dbl> <dbl> <dbl> <dbl> <dbl>    <dbl> <dbl>
##  1 CDM         72    39     0     0    30    32  2125     4     2        4     0
##  2 LM          22    20     0     0    26    31  2134     5     4        4     1
##  3 LB          30    36     0     0    24    23  1759     0     1        0     0
##  4 RB          28    45     0     0    27    26  2316     4     3        4     0
##  5 LB          89    64     0     1    30    36  3153     0     2        0     0
##  6 RB          69    41     0     1    29    35  2988     0     1        0     0
##  7 ST          10    19     0     0    30    32  2545     9     5        8     1
##  8 CB          28    21     1     1    27    31  2786     1     1        1     0
##  9 CM           7     9     0     0    30    25  1856     2     5        2     0
## 10 CAM         19    15     1     0    24    36  2492     8     5        8     0
## # ... with 490 more rows, and 12 more variables: PKatt <dbl>, CrdY <dbl>,
## #   CrdR <dbl>, G_plus_A_per90 <dbl>, G_minus_Pk_per90 <dbl>,
## #   G_plus_A_minus_PK_per90 <dbl>, Rk <dbl>, GF <dbl>, GA <dbl>, GD <dbl>,
## #   Pts <dbl>, revision <fct>
…
6.488084

4.007976

la_liga_ranger_recipe <- recipe(revision ~., data = la_liga_training) %>% 
  step_rm(Player, Nation, Squad, Born, G_per90, A_per90, minutes_played_divided_by90, OG, Attendance) %>% 
  step_upsample(revision, over_ratio = .5) %>% 
  step_mutate_at(all_numeric(), fn = ~as.numeric(.))

la_liga_ranger_recipe %>% 
  prep(la_liga_training) %>% 
  juice()

## # A tibble: 534 x 23
##    position   Int  TklW PKcon   Age    MP   Min   Gls   Ast Non_PK_G    PK PKatt
##    <fct>    <dbl> <dbl> <dbl> <dbl> <dbl> <dbl> <dbl> <dbl>    <dbl> <dbl> <dbl>
##  1 CM          12    23     0    22    31  2480     3     2        3     0     0
##  2 CB          35    32     2    26    25  2023     0     1        0     0     0
##  3 CAM         53    66     0    19    30  2341     2     2        2     0     0
##  4 LM          53    52     1    21    29  2176     1     6        1     0     0
##  5 CM          55    40     0    27    36  3163     7     5        7     0     0
##  6 CB          43    38     0    32    25  1928     1     3        0     1     1
##  7 ST           7    12     0    26    33  2074    13     2       13     0     0
##  8 CDM         16    32     0    26    30  2385     0     5        0     0     0
##  9 LB          29    29     0    26    27  1737     0     2        0     0     1
## 10 CB          31    41     2    27    37  3330     1     0        1     0     0
## # ... with 524 more rows, and 11 more variables: CrdY <dbl>, CrdR <dbl>,
## #   G_plus_A_per90 <dbl>, G_minus_Pk_per90 <dbl>,
## #   G_plus_A_minus_PK_per90 <dbl>, Rk <dbl>, GF <dbl>, GA <dbl>, GD <dbl>,
## #   Pts <dbl>, revision <fct>
…
4.333700

3.402039

ligue1_ranger_recipe <- recipe(revision ~., data = ligue1_training) %>% 
  step_rm(Player, Nation, Squad, Born, minutes_played_divided_by90, G_per90, A_per90, Attendance) %>% 
  step_upsample(revision, over_ratio = .4) %>% 
  step_mutate_at(all_numeric(), fn = ~as.numeric(.))

ligue1_ranger_recipe %>% 
  prep(ligue1_training) %>% 
  juice()

## # A tibble: 502 x 24
##    position   Int  TklW    OG PKcon   Age    MP   Min   Gls   Ast Non_PK_G    PK
##    <fct>    <dbl> <dbl> <dbl> <dbl> <dbl> <dbl> <dbl> <dbl> <dbl>    <dbl> <dbl>
##  1 RB          39    45     0     0    26    27  2149     0     3        0     0
##  2 LM          11    26     0     0    23    38  2476     3     5        3     0
##  3 RB          51    31     0     0    22    27  2324     0     1        0     0
##  4 ST          14    16     0     0    26    36  2225    10     4       10     0
##  5 CB          41    36     0     0    32    32  2635     1     0        1     0
##  6 RB          72    74     0     3    29    27  2395     0     1        0     0
##  7 RB          67    31     0     1    26    26  2198     1     1        1     0
##  8 CB          27    26     0     1    25    34  3015     1     0        1     0
##  9 RB          74    63     0     0    23    30  2646     0     4        0     0
## 10 LB          24    23     0     3    22    27  2121     0     4        0     0
## # ... with 492 more rows, and 12 more variables: PKatt <dbl>, CrdY <dbl>,
## #   CrdR <dbl>, G_plus_A_per90 <dbl>, G_minus_Pk_per90 <dbl>,
## #   G_plus_A_minus_PK_per90 <dbl>, Rk <dbl>, GF <dbl>, GA <dbl>, GD <dbl>,
## #   Pts <dbl>, revision <fct>
…
4.106397

4.332935

bundesliga_ranger_recipe <- recipe(revision ~., data = bundesliga_training) %>% 
  step_rm(Player, Nation, Squad, G_per90, A_per90, minutes_played_divided_by90, Attendance, Born) %>% 
  step_upsample(revision, over_ratio = .55) %>% 
  step_mutate_at(all_numeric(), fn = ~as.numeric(.))

bundesliga_ranger_recipe %>% 
  prep(bundesliga_training) %>% 
  juice()

## # A tibble: 434 x 24
##    position   Int  TklW    OG PKcon   Age    MP   Min   Gls   Ast Non_PK_G    PK
##    <fct>    <dbl> <dbl> <dbl> <dbl> <dbl> <dbl> <dbl> <dbl> <dbl>    <dbl> <dbl>
##  1 CM          37    51     0     1    28    27  2302     1     3        1     0
##  2 LM          29    10     0     0    30    26  1982     7     4        6     1
##  3 ST          11    20     0     0    23    28  1735     5     1        5     0
##  4 CB          34    41     0     0    28    27  2315     3     2        3     0
##  5 CB          74    39     0     0    19    25  2106     0     0        0     0
##  6 CB          10    30     0     0    24    26  2126     3     0        3     0
##  7 LM          27    17     0     0    26    25  1729     1     3        1     0
##  8 CB          16    21     0     1    21    28  2427     0     2        0     0
##  9 CB          35    23     0     1    32    30  2637     0     0        0     0
## 10 CB          21    12     0     1    22    24  1901     1     0        1     0
## # ... with 424 more rows, and 12 more variables: PKatt <dbl>, CrdY <dbl>,
## #   CrdR <dbl>, G_plus_A_per90 <dbl>, G_minus_Pk_per90 <dbl>,
## #   G_plus_A_minus_PK_per90 <dbl>, Rk <dbl>, GF <dbl>, GA <dbl>, GD <dbl>,
## #   Pts <dbl>, revision <fct>
…
3.407388

5.063365

serie_a_ranger_recipe <- recipe(revision ~., data = serie_a_training) %>% 
  step_rm(Player, Nation, Squad, Born, G_per90, A_per90, minutes_played_divided_by90, Attendance) %>% 
  step_upsample(revision, over_ratio = .4) %>% 
  step_mutate_at(all_numeric(), fn = ~as.numeric(.))

serie_a_ranger_recipe %>% 
  prep(serie_a_training) %>% 
  juice()

## # A tibble: 502 x 24
##    position   Int  TklW    OG PKcon   Age    MP   Min   Gls   Ast Non_PK_G    PK
##    <fct>    <dbl> <dbl> <dbl> <dbl> <dbl> <dbl> <dbl> <dbl> <dbl>    <dbl> <dbl>
##  1 CB          51    32     0     2    27    37  3258     2     0        2     0
##  2 RW          33    27     0     0    26    35  2516    12     8       10     2
##  3 LB          15    24     0     0    31    24  1807     3     2        3     0
##  4 CM          40    38     0     0    32    34  2741     0     0        0     0
##  5 CDM         28    23     0     0    21    25  1803     0     1        0     0
##  6 CB          18    20     0     1    22    32  2880     0     1        0     0
##  7 CB          25    26     0     1    31    24  1927     0     0        0     0
##  8 ST           9    15     0     2    28    33  2719    11     0       11     0
##  9 LB          15    24     0     0    31    24  1807     3     2        3     0
## 10 CM          37    52     0     0    32    28  1984     0     4        0     0
## # ... with 492 more rows, and 12 more variables: PKatt <dbl>, CrdY <dbl>,
## #   CrdR <dbl>, G_plus_A_per90 <dbl>, G_minus_Pk_per90 <dbl>,
## #   G_plus_A_minus_PK_per90 <dbl>, Rk <dbl>, GF <dbl>, GA <dbl>, GD <dbl>,
## #   Pts <dbl>, revision <fct>
…
